{
  "entities": {
    "gods": [
      {
        "id": 0,
        "category": "gods",
        "name": "Zeus",
        "roman_name": "Jupiter",
        "title": "King of Olympus",
        "description": "Greek God of the Sky and King of the Gods",
        "image_url": "https://s3.eu-west-2.amazonaws.com/greekgods/zeus.svg",
        "rules_over": [
          "Skies",
          "Thunder",
          "Lightning",
          "Hospitality",
          "Honor",
          "Kingship",
          "Order"
        ],
        "olympian": true,
        "parents": {
          "father": "Cronus",
          "mother": "Rhea"
        },
        "children": [
          "Persephone",
          "Heracles",
          "Aphrodite",
          "Amphion",
          "Zethus",
          "Charities",
          "Arcas",
          "Ares",
          "Hephaestus",
          "Apollo",
          "Artemis",
          "Aecus",
          "Hermes",
          "Dardanus",
          "Harmonia",
          "Iasius",
          "Athena",
          "Minos",
          "Muses",
          "Epaphus",
          "Argos",
          "Dionysus"
        ],
        "siblings": ["Hera", "Poseidon", "Hades", "Demeter", "Hestia"]
      },
      {
        "id": 1,
        "category": "gods",
        "name": "Athena",
        "roman_name": "Minerva",
        "title": "",
        "description": "Greek Goddess of Wisdom and War",
        "image_url": "https://s3.eu-west-2.amazonaws.com/greekgods/Athena.svg",
        "rules_over": ["Wisdom", "War"],
        "olympian": true,
        "parents": {
          "father": "Zeus"
        },
        "children": [],
        "siblings": [
          "Artemis",
          "Aphrodite",
          "Ares",
          "Apollo",
          "Dionysus",
          "Hebe",
          "Hermes",
          "Heracles",
          "Hephaestus",
          "Minos",
          "Perseus",
          "Porus"
        ]
      },
      {
        "id": 2,
        "category": "gods",
        "name": "Hera",
        "roman_name": "Juno",
        "title": "Queen of Heaven",
        "description": "Greek Goddess of Marriage and Queen of Olympus",
        "image_url": "https://s3.eu-west-2.amazonaws.com/greekgods/hera.svg",
        "rules_over": ["Marriage", "Women", "Birth", "the Heavens"],
        "olympian": true,
        "parents": {
          "father": "Cronus",
          "mother": "Rhea"
        },
        "children": ["Ares", "Hephaestus"],
        "siblings": ["Zeus", "Poseidon", "Hades", "Demeter", "Hestia"]
      },
      {
        "id": 3,
        "name": "Apollo",
        "roman_name": "Apollo",
        "title": "",
        "description": "God of the Sun, the Light, the Music and Prophecy",
        "image_url": "https://s3.eu-west-2.amazonaws.com/greekgods/apollo.svg",
        "rules_over": [
          "Music",
          "Poetry",
          "Art",
          "Oracles",
          "Archery",
          "Plague",
          "Medicine",
          "Sun",
          "Light",
          "Knowledge"
        ],
        "olympian": true,
        "parents": {
          "father": "Zeus",
          "mother": "Leto"
        },
        "children": ["Asclepius", "Troilus", "Aristaeus", "Orpheus"],
        "siblings": ["Artemis", "Athena"]
      },
      {
        "id": 4,
        "category": "gods",
        "name": "Aphrodite",
        "roman_name": "Venus",
        "title": "Lady of Cythera or Lady of Cyprus",
        "description": "Greek Goddess of Love, Beauty & Eternal Youth",
        "image_url": "https://s3.eu-west-2.amazonaws.com/greekgods/aphrodite.svg",
        "rules_over": ["Love", "Beauty", "Pleasure", "Procreation"],
        "olympian": true,
        "parents": {
          "father": "Zeus",
          "mother": "Dione"
        },
        "children": [
          "Eros",
          "Phobos",
          "Deimos",
          "Harmonia",
          "Pothos",
          "Anteros",
          "Himeros",
          "Hermaphroditos",
          "Rhode",
          "Eryx",
          "Peitho",
          "Eunomia",
          "The Graces",
          "Priapus",
          "Aeneas"
        ],
        "siblings": []
      }
    ],
    "titans": [
      {
        "id": 5,
        "category": "titans",
        "name": "Cronus",
        "roman_name": "Saturn",
        "title": "Titan of the Harvest",
        "description": "Greek primordial God of time",
        "image_url": "https://s3.eu-west-2.amazonaws.com/greekgods/cronus.svg",
        "rules_over": ["Time", "Harvest"],
        "olympian": false,
        "parents": {
          "father": "Uranus",
          "mother": "Gaia"
        },
        "children": [
          "Zeus",
          "Hestia",
          "Hera",
          "Hades",
          "Poseidon"
        ],
        "siblings": [
          "Rhea"
        ]
      },
      {
        "id": 6,
        "category": "titans",
        "name": "Rhea",
        "roman_name": "Ops",
        "title": "The mother of Gods",
        "description": "Greek primordial God of time",
        "image_url": "https://s3.eu-west-2.amazonaws.com/greekgods/rhea.svg",
        "rules_over": ["Gods", "Olymp"],
        "olympian": false,
        "parents": {
          "father": "Uranus",
          "mother": "Gaia"
        },
        "children": [
          "Zeus",
          "Hestia",
          "Hera",
          "Hades",
          "Poseidon"
        ],
        "siblings": [
          "Zeus"
        ]
      }
    ],
    "creatures": [
      {
        "id": 7,
        "category": "creatures",
        "name": "Centaur",
        "description": "Half-man, half horse creature",
        "image_url": "https://s3.eu-west-2.amazonaws.com/greekgods/Centaur2.svg"
      },
      {
        "id": 8,
        "category": "creatures",
        "name": "Chimera",
        "description": "A Fire-Breathing Monster",
        "image_url": "https://s3.eu-west-2.amazonaws.com/greekgods/chimera.svg",
        "children": [
          "Nemean Lion",
          "Sphinx"
        ],
        "parents": {
          "father": "Echidna",
          "mother": "Typhon"
        }
      },
      {
        "id": 9,
        "category": "creatures",
        "name": "Cyclop",
        "description": "Giant, one-eyed monster",
        "image_url": "https://s3.eu-west-2.amazonaws.com/greekgods/cyclop.svg",
        "parents": {
          "father": "Uranus",
          "mother": "Gaia"
        }
      },
      {
        "id": 10,
        "category": "creatures",
        "name": "Echidna",
        "description": "Mother of Monsters",
        "image_url": "https://s3.eu-west-2.amazonaws.com/greekgods/echidna+(1).svg",
        "parents": {
          "father": "Phorcys"
        }
      },
      {
        "id": 11,
        "category": "creatures",
        "name": "Typhon",
        "description": "Father of all Monsters",
        "image_url": "https://s3.eu-west-2.amazonaws.com/greekgods/typhon.svg",
        "parents": {
          "father": "Tartarus",
          "mother": "Gaia"
        }
      }
    ],
    "heroes": [
      {
      "id": 12,
      "category": "heroes",
      "name": "Heracles",
      "roman_name": "Hercules",
      "description": "The greatest of the heroes",
      "image_url": "https://s3.eu-west-2.amazonaws.com/greekgods/typhon.svg",
      "parents": {
        "father": "Zeus",
        "mother": "Alcmene"
      },
      "deeds": [
        "Slay the Nemean Lion",
        "Kill the nine-headed Lernaean Hydra",
        "Capture the Golden Hide of Artemis",
        "Capture the Erymanthian Boar",
        "Clean the Augean stables in a single day",
        "Slay the Stymphalian Birds",
        "Capture the Cretan Bull",
        "Steal the Mares of Diomedes",
        "Obtain the girdle of Hippolyta, Queen of the Amazons",
        "Obtain the cattle of the monster Geryon",
        "Take the apples of the Hesperides",
        "Capture and bring back cerberus, the Guardian of the Underworld"
      ]
    },
      {
        "id": 13,
        "category": "heroes",
        "name": "Odysseus",
        "roman_name": "Ulysses",
        "description": "The great-grandson of Hermes, one of the twelve Olympian Gods.",
        "image_url": "https://s3.eu-west-2.amazonaws.com/greekgods/typhon.svg",
        "parents": {
          "father": "Laertes",
          "mother": "Alcmene"
        },
        "deeds": [
          "Ten-year journey after the Trojan War."
        ]
      },
      {
        "id": 13,
        "category": "heroes",
        "name": "Perseus",
        "description": "One of the oldest out of all of the Greek mythological heroes.",
        "image_url": "https://s3.eu-west-2.amazonaws.com/greekgods/typhon.svg",
        "parents": {
          "father": "Zeus",
          "mother": "Danae"
        },
        "deeds": [
          "Slay the Gorgon Medusa.",
          "Save Andromeda from the sea monster Cetus"
        ]
      },
      {
        "id": 14,
        "category": "heroes",
        "name": "Achilles",
        "description": "The greatest warrior of Homer’s Illiad.",
        "image_url": "https://s3.eu-west-2.amazonaws.com/greekgods/typhon.svg",
        "parents": {
          "father": "Peleus",
          "mother": "Thetis"
        },
        "deeds": [
          "Trojan War."
        ]
      },
      {
        "id": 15,
        "category": "heroes",
        "name": "Daedalus",
        "description": "A genius inventor.",
        "image_url": "https://s3.eu-west-2.amazonaws.com/greekgods/typhon.svg",
        "deeds": [
          "Build the Labyrinth of Minotaur.",
          "Create wings for Icarus, his son",
          "Build a temple of Apollo on Sicily"
        ]
      }
    ]
  }
}
